-#
15
10
-p
0
25
25
27
27
27
27
25
27
27
27
27
25
25
25
25
0
-M
5514
-st
0
0
0
0
5
0
0
0
3
9
0
0
0
0
2
6
0
-d
10125
10125
7402
6229
10125
10125
10125
10125
10125
6551
10125
7023
10125
10125
10125
10125
10125
-s
0 25 25 0 0 0 0 25 0 0 0 0 25 25 25 25 0
25 0 15 25 25 25 25 15 25 25 25 25 15 15 15 15 25
25 15 0 25 25 25 25 15 25 25 25 25 15 15 15 15 25
27 15 15 0 27 27 27 15 27 27 27 27 15 15 15 15 27
27 15 15 27 0 27 27 15 27 27 27 27 15 15 15 15 27
27 15 15 27 27 0 27 15 27 27 27 27 15 15 15 15 27
27 15 15 27 27 27 0 15 27 27 27 27 15 15 15 15 27
25 15 15 25 25 25 25 0 25 25 25 25 15 15 15 15 25
27 15 15 27 27 27 27 15 0 27 27 27 15 15 15 15 27
27 15 15 27 27 27 27 15 27 0 27 27 15 15 15 15 27
27 15 15 27 27 27 27 15 27 27 0 27 15 15 15 15 27
27 15 15 27 27 27 27 15 27 27 27 0 15 15 15 15 27
25 15 15 25 25 25 25 15 25 25 25 25 0 15 15 15 25
25 15 15 25 25 25 25 15 25 25 25 25 15 0 15 15 25
25 15 15 25 25 25 25 15 25 25 25 25 15 15 0 15 25
25 15 15 25 25 25 25 15 25 25 25 25 15 15 15 0 25
0 25 25 0 0 0 0 25 0 0 0 0 25 25 25 25 0
-b
100
50
25
50
-l
100
100
100
100
100
100
100
100
100
100
-c
0
43
43
47
47
47
47
43
47
47
47
47
43
43
43
43
0
