\begin{tikzpicture}
\fill(0,1) circle (3pt) node[below=2pt]{source};
\foreach[count=\x from -1] \y in {0,0.5,1,1.5,2}
\draw(0,1) coordinate (A) -- (1,\x)
        coordinate (B);
\node[] at (1.8,1) {$\ldots$};

\node[] at (3,4.2) {$\phi_1$};
\foreach[count=\x from -1] \y in {0,1,2,3,4}{
\fill(3,\x) circle (3pt) node[below=2pt]{};
\draw(3,\x) coordinate (A) -- (3.5,\x -0.3)
        coordinate (B);
\draw(3,\x) coordinate (A) -- (3.5,\x )
        coordinate (B);
\draw(3,\x) coordinate (A) -- (3.5,\x +0.3)
        coordinate (B);
\draw(3,\x) coordinate (A) -- (2.5,\x -0.3)
        coordinate (B);
\draw(3,\x) coordinate (A) -- (2.5,\x )
        coordinate (B);
\draw(3,\x) coordinate (A) -- (2.5,\x +0.3)
        coordinate (B);
}
\node[] at (4,1) {$\ldots$};
\node[] at (5,4.2) {$\phi_2$};
\foreach[count=\x from -1] \y in {0,1,2,3,4}{
\fill(5,\x) circle (3pt) node[below=2pt]{};
\draw(5,\x) coordinate (A) -- (5.5,\x -0.3)
        coordinate (B);
\draw(5,\x) coordinate (A) -- (5.5,\x )
        coordinate (B);
\draw(5,\x) coordinate (A) -- (5.5,\x +0.3)
        coordinate (B);
\draw(5,\x) coordinate (A) -- (4.5,\x -0.3)
        coordinate (B);
\draw(5,\x) coordinate (A) -- (4.5,\x )
        coordinate (B);
\draw(5,\x) coordinate (A) -- (4.5,\x +0.3)
        coordinate (B);
}
\node[] at (6.2,1) {$\ldots$};
\fill(8,1) circle (3pt) node[below=2pt]{sink};
\foreach[count=\x from -1] \y in {0,0.5,1,1.5,2}
\draw(8,1) coordinate (A) -- (7,\x)
        coordinate (B);
\end{tikzpicture}